2. Stwórz mapę z nazwami produktów i cenami. Na jej podstawie wygeneruj drugą,z 10% obniżką cen. Wykorzystaj mechanizm mapowania kolekcji.
Produkty: Map(Mydło -> 10.0, Powidło -> 22.1, Sznurek -> 9.3, Ogórek -> 12.1)
Promocja: Map(Mydło -> 9.0, Powidło -> 19.89, Sznurek -> 8.370000000000001, Ogórek -> 10.89)
