[
  {
    "keys": [
      "path",
      "min_price"
    ],
    "length": 2,
    "_fields": [
      {
        "start": {
          "identity": {
            "low": 218,
            "high": 0
          },
          "labels": [
            "Airport"
          ],
          "properties": {
            "name": "LAX"
          }
        },
        "end": {
          "identity": {
            "low": 99,
            "high": 0
          },
          "labels": [
            "Airport"
          ],
          "properties": {
            "name": "DAY"
          }
        },
        "segments": [
          {
            "start": {
              "identity": {
                "low": 218,
                "high": 0
              },
              "labels": [
                "Airport"
              ],
              "properties": {
                "name": "LAX"
              }
            },
            "relationship": {
              "identity": {
                "low": 1962,
                "high": 0
              },
              "start": {
                "low": 218,
                "high": 0
              },
              "end": {
                "low": 36,
                "high": 0
              },
              "type": "CONNECTION_BUSINESS",
              "properties": {
                "min_price": {
                  "low": 249,
                  "high": 0
                },
                "distance": {
                  "low": 236,
                  "high": 0
                }
              }
            },
            "end": {
              "identity": {
                "low": 36,
                "high": 0
              },
              "labels": [
                "Airport"
              ],
              "properties": {
                "name": "LAS"
              }
            }
          },
          {
            "start": {
              "identity": {
                "low": 36,
                "high": 0
              },
              "labels": [
                "Airport"
              ],
              "properties": {
                "name": "LAS"
              }
            },
            "relationship": {
              "identity": {
                "low": 2098,
                "high": 0
              },
              "start": {
                "low": 36,
                "high": 0
              },
              "end": {
                "low": 28,
                "high": 0
              },
              "type": "CONNECTION_BUSINESS",
              "properties": {
                "min_price": {
                  "low": 654,
                  "high": 0
                },
                "distance": {
                  "low": 628,
                  "high": 0
                }
              }
            },
            "end": {
              "identity": {
                "low": 28,
                "high": 0
              },
              "labels": [
                "Airport"
              ],
              "properties": {
                "name": "DEN"
              }
            }
          },
          {
            "start": {
              "identity": {
                "low": 28,
                "high": 0
              },
              "labels": [
                "Airport"
              ],
              "properties": {
                "name": "DEN"
              }
            },
            "relationship": {
              "identity": {
                "low": 1974,
                "high": 0
              },
              "start": {
                "low": 1,
                "high": 0
              },
              "end": {
                "low": 28,
                "high": 0
              },
              "type": "CONNECTION_BUSINESS",
              "properties": {
                "min_price": {
                  "low": 716,
                  "high": 0
                },
                "distance": {
                  "low": 680,
                  "high": 0
                }
              }
            },
            "end": {
              "identity": {
                "low": 1,
                "high": 0
              },
              "labels": [
                "Airport"
              ],
              "properties": {
                "name": "MSP"
              }
            }
          },
          {
            "start": {
              "identity": {
                "low": 1,
                "high": 0
              },
              "labels": [
                "Airport"
              ],
              "properties": {
                "name": "MSP"
              }
            },
            "relationship": {
              "identity": {
                "low": 1852,
                "high": 0
              },
              "start": {
                "low": 1,
                "high": 0
              },
              "end": {
                "low": 99,
                "high": 0
              },
              "type": "CONNECTION_BUSINESS",
              "properties": {
                "min_price": {
                  "low": 597,
                  "high": 0
                },
                "distance": {
                  "low": 574,
                  "high": 0
                }
              }
            },
            "end": {
              "identity": {
                "low": 99,
                "high": 0
              },
              "labels": [
                "Airport"
              ],
              "properties": {
                "name": "DAY"
              }
            }
          }
        ],
        "length": 4
      },
      {
        "low": 2216,
        "high": 0
      }
    ],
    "_fieldLookup": {
      "path": 0,
      "min_price": 1
    }
  }
]
